{
	"AWSEBDockerrunVersion": "1",
	"Image": {
		"Name": "registry.gitlab.com/mabliz/dev/backend/pricingmanagement",
		"Update": "true"
	},
	"Authentication": {
		"Bucket": "mabliz-pricingmanagement-credentials",
		"Key": "docker-config.json"
	},
	"Ports": [
		{
			"ContainerPort": "9000"
		}
	],
	"Logging": "/var/log/nginx"
}
